Real Project
…
Weather <- read.csv("Weather.csv", header = TRUE, quote = "\"", 
    stringsAsFactors = TRUE, strip.white = TRUE)

0. Introduction

I’m apart of Texas 4000 and will be biking 4,500 miles this summer in the fight against cancer! We record our rides onto this website, which was actually made by a Texas 4000 alum, which is cool. My first data set includes the date, rider, time, pace, and miles ridden. I had to get data from a couple friends since I didn’t have 50 rides by myself. The second data set includes the common variable, which is the date, as well as the low temperature, high temperature, and weather type for that day. I wanted to see if the weather had any impact on my biking data and expect the weather to impact the pace and time more than miles.

1. Tidying: Rearranging Wide/Long

library(tidyr)
RMS %>% pivot_wider(names_from = "Rider", values_from = "Miles")

## # A tibble: 50 x 6
##    Date      Time  Pace Addison Aashna  Alex
##    <fct>    <dbl> <dbl>   <dbl>  <dbl> <dbl>
##  1 11/21/20  1.5   10      16.4   NA      NA
##  2 11/23/20  1.48  10.1    16.4   NA      NA
##  3 11/26/20  1.98  12.3    24.6   NA      NA
##  4 12/2/20   2.18  11.6    23.5   NA      NA
##  5 12/3/20   2.17  11      23.4   NA      NA
##  6 12/5/20   2.5   10.2    NA     26.2    NA
##  7 12/8/20   3.62  11      NA     32.8    NA
##  8 12/16/20  3.38  10.5    NA     35.5    NA
##  9 12/17/20  3.1   10.3    25.7   NA      NA
## 10 12/20/20  2.42  11.8    NA     28.7    NA
## # … with 40 more rows

Wider <- RMS %>% pivot_wider(names_from = "Rider", values_from = "Miles")
Wider %>% pivot_longer(c("Addison", "Aashna", "Alex"), names_to = "Rider", 
    values_to = "Miles") %>% na.omit(DT)

## # A tibble: 50 x 5
##    Date      Time  Pace Rider   Miles
##    <fct>    <dbl> <dbl> <chr>   <dbl>
##  1 11/21/20  1.5   10   Addison  16.4
##  2 11/23/20  1.48  10.1 Addison  16.4
##  3 11/26/20  1.98  12.3 Addison  24.6
##  4 12/2/20   2.18  11.6 Addison  23.5
##  5 12/3/20   2.17  11   Addison  23.4
##  6 12/5/20   2.5   10.2 Aashna   26.2
##  7 12/8/20   3.62  11   Aashna   32.8
##  8 12/16/20  3.38  10.5 Aashna   35.5
##  9 12/17/20  3.1   10.3 Addison  25.7
## 10 12/20/20  2.42  11.8 Aashna   28.7
## # … with 40 more rows

Weather %>% pivot_wider(names_from = "Weather", values_from = "High")

## # A tibble: 50 x 7
##    Date       Low `Partly Cloudy` Sunny Cloudy Windy Rainy
##    <fct>    <int>           <int> <int>  <int> <int> <int>
##  1 11/21/20    65              81    NA     NA    NA    NA
##  2 11/23/20    52              68    NA     NA    NA    NA
##  3 11/26/20    45              NA    78     NA    NA    NA
##  4 12/2/20     44              NA    66     NA    NA    NA
##  5 12/3/20     40              NA    59     NA    NA    NA
##  6 12/5/20     36              54    NA     NA    NA    NA
##  7 12/8/20     43              NA    NA     79    NA    NA
##  8 12/16/20    36              NA    NA     NA    58    NA
##  9 12/17/20    30              NA    NA     NA    66    NA
## 10 12/20/20    42              NA    69     NA    NA    NA
## # … with 40 more rows

WiderWeather <- Weather %>% pivot_wider(names_from = "Weather", 
    values_from = "High")
WiderWeather %>% pivot_longer(c("Partly Cloudy", "Sunny", "Cloudy", 
    "Windy", "Rainy"), names_to = "Weather.Type", values_to = "High") %>% 
    na.omit(DT)

## # A tibble: 50 x 4
##    Date       Low Weather.Type   High
##    <fct>    <int> <chr>         <int>
##  1 11/21/20    65 Partly Cloudy    81
##  2 11/23/20    52 Partly Cloudy    68
##  3 11/26/20    45 Sunny            78
##  4 12/2/20     44 Sunny            66
##  5 12/3/20     40 Sunny            59
##  6 12/5/20     36 Partly Cloudy    54
##  7 12/8/20     43 Cloudy           79
##  8 12/16/20    36 Windy            58
##  9 12/17/20    30 Windy            66
## 10 12/20/20    42 Sunny            69
## # … with 40 more rows
…
Combined %>% group_by(Pace, Miles)

## # A tibble: 50 x 8
## # Groups:   Pace, Miles [50]
##    Date      Time  Pace Miles Rider     Low  High Weather      
##    <fct>    <dbl> <dbl> <dbl> <fct>   <int> <int> <fct>        
##  1 11/21/20  1.5   10    16.4 Addison    65    81 Partly Cloudy
##  2 11/23/20  1.48  10.1  16.4 Addison    52    68 Partly Cloudy
##  3 11/26/20  1.98  12.3  24.6 Addison    45    78 Sunny        
##  4 12/2/20   2.18  11.6  23.5 Addison    44    66 Sunny        
##  5 12/3/20   2.17  11    23.4 Addison    40    59 Sunny        
##  6 12/5/20   2.5   10.2  26.2 Aashna     36    54 Partly Cloudy
##  7 12/8/20   3.62  11    32.8 Aashna     43    79 Cloudy       
##  8 12/16/20  3.38  10.5  35.5 Aashna     36    58 Windy        
##  9 12/17/20  3.1   10.3  25.7 Addison    30    66 Windy        
## 10 12/20/20  2.42  11.8  28.7 Aashna     42    69 Sunny        
## # … with 40 more rows
…
